DARWIN-EU® Characterisation – CodelistGenerator
…
CDM vocabulary tables

cdm$condition_occurrence |>
  group_by(condition_concept_id) |>
  tally() |>
  left_join(
    cdm$concept |>
      select("concept_id", "concept_name"),
    by = c("condition_concept_id" = "concept_id")
  ) |>
  collect() |>
  arrange(desc(n))

# A tibble: 80 × 3
   condition_concept_id     n concept_name                            
                  <int> <dbl> <chr>                                   
 1             40481087 17268 Viral sinusitis                         
 2              4112343 10217 Acute viral pharyngitis                 
 3               260139  8184 Acute bronchitis                        
 4               372328  3605 Otitis media                            
 5                80180  2694 Osteoarthritis                          
 6                28060  2656 Streptococcal sore throat               
 7                81151  1915 Sprain of ankle                         
 8               378001  1013 Concussion with no loss of consciousness
 9              4283893  1001 Sinusitis                               
10              4294548   939 Acute bacterial sinusitis               
# ℹ 70 more rows
…
